[gd_scene load_steps=4 format=3 uid="uid://dmlcpe26287xl"]

[ext_resource type="ArrayMesh" uid="uid://b3jisc45y2inm" path="res://resource/models/pawn.obj" id="1_ijr8q"]
[ext_resource type="ArrayMesh" uid="uid://kmht0rnqj4k2" path="res://resource/models/helm.obj" id="2_3b7v3"]
[ext_resource type="ArrayMesh" uid="uid://cxgc3kj41knlx" path="res://resource/models/sword.obj" id="3_5wq6m"]

[node name="Soldier" type="Node3D"]
transform = Transform3D(0.6, 0, 0, 0, 0.6, 0, 0, 0, 0.6, 0, 0, 0)

[node name="Body" type="CSGMesh3D" parent="."]
mesh = ExtResource("1_ijr8q")

[node name="Helm" type="CSGMesh3D" parent="."]
mesh = ExtResource("2_3b7v3")

[node name="Weapon" type="CSGMesh3D" parent="."]
transform = Transform3D(1.07832, 1.29246, 0, -1.07832, 1.29246, 0, 0, 0, 1, 0, 0.4, 0.2)
mesh = ExtResource("3_5wq6m")
